Could not read previous export (for caching), doing full export.
Cesar: Exporting image
Diane: Exporting image
EricQ: Exporting image
EricP: Exporting image
Jingyi: Exporting image
Matthew: Exporting image
Sarina: Exporting image
Jasper: Exporting image
Tricia: Exporting image
9 views changed
Success: /var/folders/6y/mwztl2vs5h74z1fjs3jp8f000000gn/T/CDDAA13D-B7D0-47E6-9CD5-D1BA78B1B0C9-86019-0001022AFCA7AA06/664ADD7A-F99C-45F7-A41F-69F2C6E62018/Untitled.framer/imported/staff
